…
table_dist <- function(a1, a2) {
  measure_distance(c(a1, a2), table)
}
# test2 <- c(precision[1],recall[2])
# test2
measure_distance(c(7.5, 1), table)

models <- models %>% 
  mutate(dist = purrr::map2_dbl(a1, a2, table_dist))
models
#> # A tibble: 250 x 3
#>       a1      a2  dist
#>    <dbl>   <dbl> <dbl>
#> 1 -15.2   0.0889  30.8
#> 2  30.1  -0.827   13.2
#> 3  16.0   2.27    13.2
#> 4 -10.6   1.38    18.7
#> 5 -19.6  -1.04    41.8
#> 6   7.98  4.59    19.3
#> # … with 244 more rows
…
measure_distance <- function(mod, data) {
  diff <- data$y - model1(mod, data)
  mean(abs(diff))
}

model1 <- function(a, data) {
  a[1] + data$x * a[2] + a[3]
}

grid <- table %>% 
  data_grid(x) 
grid
#> # A tibble: 10 x 1
#>       x
#>   <int>
#> 1     1
#> 2     2
#> 3     3
#> 4     4
#> 5     5
#> 6     6
#> # … with 4 more rows

grid <- grid %>% 
  add_predictions(table_mod) 
grid
#> # A tibble: 10 x 2
#>       x  pred
#>   <int> <dbl>
#> 1     1  6.27
#> 2     2  8.32
#> 3     3 10.4 
#> 4     4 12.4 
#> 5     5 14.5 
#> 6     6 16.5 
#> # … with 4 more rows

ggplot(table, aes(x)) +
  geom_point(aes(y = y)) +
  geom_line(aes(y = pred), data = grid, colour = "red", size = 1)

table <- table %>% 
  add_residuals(table_mod)
table
#> # A tibble: 30 x 3
#>       x     y  resid
#>   <int> <dbl>  <dbl>
#> 1     1  4.20 -2.07 
#> 2     1  7.51  1.24 
#> 3     1  2.13 -4.15 
#> 4     2  8.99  0.665
#> 5     2 10.2   1.92 
#> 6     2 11.3   2.97 
#> # … with 24 more rows
…
grid <- table %>% 
  data_grid(x, classifier) %>% 
  gather_predictions(mod1, mod2)
grid
# Stuck At The Moment
ggplot(table, aes(x, y, colour = classifier)) + 
  geom_point() + 
  geom_line(data = grid, aes(y = pred)) + 
  facet_wrap(~ model)


# Leftover Code
#> # A tibble: 80 x 4
#>   model    x1 x2     pred
#>   <chr> <int> <fct> <dbl>
#> 1 mod1      1 a      1.67
#> 2 mod1      1 b      4.56
#> 3 mod1      1 c      6.48
#> 4 mod1      1 d      4.03
#> 5 mod1      2 a      1.48
#> 6 mod1      2 b      4.37
#> # … with 74 more rows
…
 # 24.3
 # daily <- flights %>% 
 #   mutate(date = make_date(year, month, day)) %>% 
 #   group_by(date) %>% 
 #   summarise(n = n())
 # #> `summarise()` ungrouping output (override with `.groups` argument)
 # daily
 # #> # A tibble: 365 x 2
 # #>   date           n
 # #>   <date>     <int>
 # #> 1 2013-01-01   842
 # #> 2 2013-01-02   943
 # #> 3 2013-01-03   914
 # #> 4 2013-01-04   915
 # #> 5 2013-01-05   720
 # #> 6 2013-01-06   832
 # #> # … with 359 more rows
 # 
 # ggplot(daily, aes(date, n)) + 
 #   geom_line()
 # daily <- daily %>% 
 #   mutate(wday = wday(date, label = TRUE))
 # ggplot(daily, aes(wday, n)) + 
 #   geom_boxplot()
 # mod <- lm(n ~ wday, data = daily)
…
 # ggplot(daily, aes(wday, n)) + 
 #   geom_boxplot() +
 #   geom_point(data = grid, colour = "red", size = 4)
 # daily <- daily %>% 
 #   add_residuals(mod)
 # daily %>% 
 #   ggplot(aes(date, resid)) + 
 #   geom_ref_line(h = 0) + 
 #   geom_line()
 # ggplot(daily, aes(date, resid, colour = wday)) + 
 #   geom_ref_line(h = 0) + 
 #   geom_line()
 # daily %>% 
 #   filter(resid < -100)
 # #> # A tibble: 11 x 4
 # #>   date           n wday  resid
 # #>   <date>     <int> <ord> <dbl>
 # #> 1 2013-01-01   842 Tue   -109.
 # #> 2 2013-01-20   786 Sun   -105.
 # #> 3 2013-05-26   729 Sun   -162.
 # #> 4 2013-07-04   737 Thu   -229.
 # #> 5 2013-07-05   822 Fri   -145.
 # #> 6 2013-09-01   718 Sun   -173.
 # #> # … with 5 more rows
 # daily %>% 
 #   ggplot(aes(date, resid)) + 
 #   geom_ref_line(h = 0) + 
 #   geom_line(colour = "grey50") + 
 #   geom_smooth(se = FALSE, span = 0.20)
 # #> `geom_smooth()` using method = 'loess' and formula 'y ~ x'
 # daily %>% 
 #   filter(wday == "Sat") %>% 
…
# group <- foo2 %>%
#   mutate(classifier) %>%
#   group_by(classifier) %>%
#   summarize(x = x())
# group

#> # A tibble: 16 x 11
#>   price  pred carat cut     color clarity depth table     x     y     z
#>   <int> <dbl> <dbl> <ord>   <ord> <ord>   <dbl> <dbl> <dbl> <dbl> <dbl>
#> 1  1013   264  0.25 Fair    F     SI2      54.4    64  4.3   4.23  2.32
#> 2  1186   284  0.25 Premium G     SI2      59      60  5.33  5.28  3.12
#> 3  1186   284  0.25 Premium G     SI2      58.8    60  5.33  5.28  3.12
#> 4  1262  2644  1.03 Fair    E     I1       78.2    54  5.72  5.59  4.42
#> 5  1415   639  0.35 Fair    G     VS2      65.9    54  5.57  5.53  3.66
#> 6  1415   639  0.35 Fair    G     VS2      65.9    54  5.57  5.53  3.66
#> # … with 10 more rows
…
