…
table_dist <- function(a1, a2) {
  measure_distance(c(a1, a2),table)
}
# test2 <- c(precision[1],recall[2])
# test2
# measure_distance(c(7.5, 1), table)

models <- models %>% 
  mutate(dist = purrr::map2_dbl(a1, a2, table_dist))
models
```
#> # A tibble: 250 x 3
#>       a1      a2  dist
#>    <dbl>   <dbl> <dbl>
#> 1 -15.2   0.0889  30.8
#> 2  30.1  -0.827   13.2
#> 3  16.0   2.27    13.2
#> 4 -10.6   1.38    18.7
#> 5 -19.6  -1.04    41.8
#> 6   7.98  4.59    19.3
#> # … with 244 more rows
…
measure_distance <- function(mod, data) {
  diff <- data$y - model1(mod, data)
  mean(abs(diff))
}

model1 <- function(a, data) {
  a[1] + data$x * a[2] + a[3]
}

grid <- table %>% 
  data_grid(x) 
grid
```
```{r Chapter 23 Plot 8}
#> # A tibble: 10 x 1
#>       x
#>   <int>
#> 1     1
#> 2     2
#> 3     3
#> 4     4
#> 5     5
#> 6     6
#> # … with 4 more rows

grid <- grid %>% 
  add_predictions(table_mod) 
grid
#> # A tibble: 10 x 2
#>       x  pred
#>   <int> <dbl>
#> 1     1  6.27
#> 2     2  8.32
#> 3     3 10.4 
#> 4     4 12.4 
#> 5     5 14.5 
#> 6     6 16.5 
#> # … with 4 more rows

ggplot(table, aes(x)) +
  geom_point(aes(y = y)) +
  geom_line(aes(y = pred), data = grid, colour = "red", size = 1)
```
```{r Chapter 23 Plot 9}
table <- table %>% 
  add_residuals(table_mod)
table
#> # A tibble: 30 x 3
#>       x     y  resid
#>   <int> <dbl>  <dbl>
#> 1     1  4.20 -2.07 
#> 2     1  7.51  1.24 
#> 3     1  2.13 -4.15 
#> 4     2  8.99  0.665
#> 5     2 10.2   1.92 
#> 6     2 11.3   2.97 
#> # … with 24 more rows
…
<br># # Problematic Code
```{r Chapter 23 Plot 16 Classifier}
ggplot(foo, aes(x, y, colour = classifier)) +
  geom_point() +
  geom_line(data = grid, aes(y = pred)) +
  facet_wrap(~ model)
```
<br>
```{r Chapter 23 Plot 17}
# Leftover Code
#> # A tibble: 80 x 4
#>   model    x1 x2     pred
#>   <chr> <int> <fct> <dbl>
#> 1 mod1      1 a      1.67
#> 2 mod1      1 b      4.56
#> 3 mod1      1 c      6.48
#> 4 mod1      1 d      4.03
#> 5 mod1      2 a      1.48
#> 6 mod1      2 b      4.37
#> # … with 74 more rows
…
